^D:\GC2A16\C++\CPP_KADAI\課題6\CALCLATION.CPP|D:\GC2A16\C++\CPP_KADAI\課題6\MAIN.CPP
D:\GC2A16\C++\CPP_KADAI\課題6\DEBUG\VC142.PDB
D:\GC2A16\C++\CPP_KADAI\課題6\DEBUG\VC142.IDB
D:\GC2A16\C++\CPP_KADAI\課題6\DEBUG\MAIN.OBJ
D:\GC2A16\C++\CPP_KADAI\課題6\DEBUG\CALCLATION.OBJ
^D:\GC2A16\C++\CPP_KADAI\課題6\CALCLATION.CPP
D:\GC2A16\C++\CPP_KADAI\課題6\DEBUG\VC142.PDB
^D:\GC2A16\C++\CPP_KADAI\課題6\MAIN.CPP
D:\GC2A16\C++\CPP_KADAI\課題6\DEBUG\VC142.PDB
