^D:\GC2A16\C++\CPP_KADAI\課題13\CALCULATION.CPP|D:\GC2A16\C++\CPP_KADAI\課題13\MAIN.CPP
D:\GC2A16\C++\CPP_KADAI\課題13\DEBUG\VC142.PDB
D:\GC2A16\C++\CPP_KADAI\課題13\DEBUG\VC142.IDB
D:\GC2A16\C++\CPP_KADAI\課題13\DEBUG\MAIN.OBJ
D:\GC2A16\C++\CPP_KADAI\課題13\DEBUG\CALCULATION.OBJ
^D:\GC2A16\C++\CPP_KADAI\課題13\CALCULATION.CPP
D:\GC2A16\C++\CPP_KADAI\課題13\DEBUG\VC142.PDB
^D:\GC2A16\C++\CPP_KADAI\課題13\MAIN.CPP
D:\GC2A16\C++\CPP_KADAI\課題13\DEBUG\VC142.PDB
D:\GC2A16\C++\CPP_KADAI\課題13\DEBUG\VC142.IDB
D:\GC2A16\C++\CPP_KADAI\課題13\DEBUG\MAIN.OBJ
