^D:\GC2A16\C++\CPP_KADAI\課題2\DEBUG\MAIN.OBJ|D:\GC2A16\C++\CPP_KADAI\課題2\DEBUG\TRIANGLECLASS.OBJ
/OUT:"D:\GC2A16\C++\CPP_KADAI\DEBUG\課題2.EXE" /INCREMENTAL /NOLOGO KERNEL32.LIB USER32.LIB GDI32.LIB WINSPOOL.LIB COMDLG32.LIB ADVAPI32.LIB SHELL32.LIB OLE32.LIB OLEAUT32.LIB UUID.LIB ODBC32.LIB ODBCCP32.LIB /MANIFEST /MANIFESTUAC:"level='asInvoker' uiAccess='false'" /manifest:embed /DEBUG:FASTLINK /PDB:"D:\GC2A16\C++\CPP_KADAI\DEBUG\課題2.PDB" /SUBSYSTEM:CONSOLE /TLBID:1 /DYNAMICBASE /NXCOMPAT /IMPLIB:"D:\GC2A16\C++\CPP_KADAI\DEBUG\課題2.LIB" /MACHINE:X86 DEBUG\MAIN.OBJ
DEBUG\TRIANGLECLASS.OBJ
