^D:\GC2A16\C++\CPP_KADAI\課題12\MAIN.CPP|D:\GC2A16\C++\CPP_KADAI\課題12\SAMPLE.CPP
D:\GC2A16\C++\CPP_KADAI\課題12\DEBUG\VC142.PDB
D:\GC2A16\C++\CPP_KADAI\課題12\DEBUG\VC142.IDB
D:\GC2A16\C++\CPP_KADAI\課題12\DEBUG\SAMPLE.OBJ
D:\GC2A16\C++\CPP_KADAI\課題12\DEBUG\MAIN.OBJ
^D:\GC2A16\C++\CPP_KADAI\課題12\MAIN.CPP
D:\GC2A16\C++\CPP_KADAI\課題12\DEBUG\VC142.PDB
^D:\GC2A16\C++\CPP_KADAI\課題12\SAMPLE.CPP
D:\GC2A16\C++\CPP_KADAI\課題12\DEBUG\VC142.PDB
