^D:\GC2A16\C++\CPP_KADAI\課題1\SAMPLE.CPP
D:\GC2A16\C++\CPP_KADAI\課題1\DEBUG\VC142.PDB
D:\GC2A16\C++\CPP_KADAI\課題1\DEBUG\VC142.IDB
D:\GC2A16\C++\CPP_KADAI\課題1\DEBUG\SAMPLE.OBJ
^D:\GC2A16\C++\CPP_KADAI\課題1\MAIN.CPP
D:\GC2A16\C++\CPP_KADAI\課題1\DEBUG\VC142.PDB
D:\GC2A16\C++\CPP_KADAI\課題1\DEBUG\VC142.IDB
D:\GC2A16\C++\CPP_KADAI\課題1\DEBUG\MAIN.OBJ
