^D:\GC2A16\GIT\CPP_KADAI\課題1\MAIN.CPP|D:\GC2A16\GIT\CPP_KADAI\課題1\SAMPLE.CPP
D:\GC2A16\GIT\CPP_KADAI\課題1\X64\DEBUG\VC142.PDB
D:\GC2A16\GIT\CPP_KADAI\課題1\X64\DEBUG\VC142.IDB
D:\GC2A16\GIT\CPP_KADAI\課題1\X64\DEBUG\SAMPLE.OBJ
D:\GC2A16\GIT\CPP_KADAI\課題1\X64\DEBUG\MAIN.OBJ
^D:\GC2A16\GIT\CPP_KADAI\課題1\MAIN.CPP
D:\GC2A16\GIT\CPP_KADAI\課題1\X64\DEBUG\VC142.PDB
^D:\GC2A16\GIT\CPP_KADAI\課題1\SAMPLE.CPP
D:\GC2A16\GIT\CPP_KADAI\課題1\X64\DEBUG\VC142.PDB
